<svg xmlns="http://www.w3.org/2000/svg" id="svg4141" width="22" height="22" version="1.1" viewBox="0 0 22 22">
 <defs id="defs10">
  <style id="current-color-scheme" type="text/css">
   .ColorScheme-Text { color:#d3dae3; } .ColorScheme-Highlight { color:#3497da; } .ColorScheme-ButtonBackground { color:#d3dae3; }
  </style>
 </defs>
 <g id="kteatime">
  <rect id="rect3009" class="ColorScheme-Text" width="22" height="22" x="0" y="0" style="fill:currentColor;fill-opacity:0;stroke:none"/>
  <path id="path4147" class="ColorScheme-Text" d="m 4,3 0,11 c 0,1.108 0.892,2 2,2 l 8,0 c 1,0 2,-1 2,-2 l 0,-1 c 2.209139,0 4,-1.790861 4,-4 C 20,6.790861 18.209139,5 16,5 L 16,3 4,3 Z m 12,4 c 1.656854,0 2,0.3431458 2,2 0,1.656854 -0.343146,2 -2,2 l 0,-4 z m -14,10 0,2 16,0 0,-2 -16,0 z" style="opacity:1;fill:currentColor;fill-opacity:1"/>
 </g>
</svg>
