<?xml version="1.0" encoding="UTF-8" standalone="no"?>
<svg
   xmlns:dc="http://purl.org/dc/elements/1.1/"
   xmlns:cc="http://creativecommons.org/ns#"
   xmlns:rdf="http://www.w3.org/1999/02/22-rdf-syntax-ns#"
   xmlns:svg="http://www.w3.org/2000/svg"
   xmlns="http://www.w3.org/2000/svg"
   xmlns:xlink="http://www.w3.org/1999/xlink"
   xmlns:sodipodi="http://sodipodi.sourceforge.net/DTD/sodipodi-0.dtd"
   xmlns:inkscape="http://www.inkscape.org/namespaces/inkscape"
   id="svg2"
   width="128"
   height="115"
   version="1"
   sodipodi:docname="listitem.svg"
   inkscape:version="0.92.4 5da689c313, 2019-01-14">
  <metadata
     id="metadata122">
    <rdf:RDF>
      <cc:Work
         rdf:about="">
        <dc:format>image/svg+xml</dc:format>
        <dc:type
           rdf:resource="http://purl.org/dc/dcmitype/StillImage" />
      </cc:Work>
    </rdf:RDF>
  </metadata>
  <sodipodi:namedview
     pagecolor="#ffffff"
     bordercolor="#666666"
     borderopacity="1"
     objecttolerance="10"
     gridtolerance="10"
     guidetolerance="10"
     inkscape:pageopacity="0"
     inkscape:pageshadow="2"
     inkscape:window-width="820"
     inkscape:window-height="480"
     id="namedview120"
     showgrid="false"
     inkscape:zoom="2.0521739"
     inkscape:cx="64"
     inkscape:cy="57.5"
     inkscape:window-x="0"
     inkscape:window-y="40"
     inkscape:window-maximized="0"
     inkscape:current-layer="svg2" />
  <defs
     id="defs5">
    <linearGradient
       id="linearGradient3830">
      <stop
         id="stop3832"
         offset="0"
         style="stop-color:#ffffff;stop-opacity:0.84313726" />
      <stop
         id="stop3834"
         offset="1"
         style="stop-color:#ffffff;stop-opacity:0" />
    </linearGradient>
    <linearGradient
       id="linearGradient3948">
      <stop
         id="stop3950"
         offset="0"
         style="stop-color:#a5a5a5;stop-opacity:1" />
      <stop
         id="stop3952"
         offset="1"
         style="stop-color:#ffffff;stop-opacity:1" />
    </linearGradient>
    <linearGradient
       id="linearGradient3788">
      <stop
         id="stop3790"
         offset="0"
         style="stop-color:#ffffff;stop-opacity:0.43137255" />
      <stop
         id="stop3792"
         offset="1"
         style="stop-color:#d7d7d7;stop-opacity:0" />
    </linearGradient>
    <linearGradient
       id="linearGradient3191">
      <stop
         id="stop3193"
         offset="0"
         style="stop-color:#ffffff;stop-opacity:1" />
      <stop
         id="stop3195"
         offset="1"
         style="stop-color:#ffffff;stop-opacity:0" />
    </linearGradient>
    <linearGradient
       id="linearGradient3205">
      <stop
         id="stop3207"
         offset="0"
         style="stop-color:#000000;stop-opacity:1" />
      <stop
         id="stop3209"
         offset="1"
         style="stop-color:#000000;stop-opacity:0" />
    </linearGradient>
    <linearGradient
       id="linearGradient3217">
      <stop
         id="stop3219-2"
         offset="0"
         style="stop-color:#000000;stop-opacity:1" />
      <stop
         id="stop3173"
         offset=".281"
         style="stop-color:#000000;stop-opacity:0.49803922" />
      <stop
         id="stop3175"
         offset=".558"
         style="stop-color:#000000;stop-opacity:0.24705882" />
      <stop
         id="stop3221-6"
         offset="1"
         style="stop-color:#000000;stop-opacity:0" />
    </linearGradient>
    <radialGradient
       id="radialGradient3965"
       cx="389.854"
       cy="181.83"
       r="373.854"
       fx="389.854"
       fy="181.83"
       gradientTransform="matrix(0.14444763,0,0,0.01872387,-62.31353,11.595444)"
       gradientUnits="userSpaceOnUse"
       xlink:href="#linearGradient3217" />
    <radialGradient
       id="radialGradient3968"
       cx="389.854"
       cy="108.5"
       r="373.854"
       fx="389.854"
       fy="108.5"
       gradientTransform="matrix(0.1444413,0,0,0.2257731,-62.31106,-8.996376)"
       gradientUnits="userSpaceOnUse"
       xlink:href="#linearGradient3205" />
    <radialGradient
       id="radialGradient3971"
       cx="389.854"
       cy="108.5"
       r="373.854"
       fx="389.854"
       fy="108.5"
       gradientTransform="matrix(0.1444413,0,0,0.2257731,-62.31106,-7.996376)"
       gradientUnits="userSpaceOnUse"
       xlink:href="#linearGradient3191" />
    <radialGradient
       id="radialGradient3697"
       cx="389.854"
       cy="108.5"
       r="373.854"
       fx="389.854"
       fy="108.5"
       gradientTransform="matrix(0.06419612,0,0,0.2257731,3.972862,-85.996376)"
       gradientUnits="userSpaceOnUse"
       xlink:href="#linearGradient3205" />
    <radialGradient
       id="radialGradient3700"
       cx="389.854"
       cy="108.5"
       r="373.854"
       fx="389.854"
       fy="108.5"
       gradientTransform="matrix(0.06419612,0,0,0.2257731,3.972862,-86.996384)"
       gradientUnits="userSpaceOnUse"
       xlink:href="#linearGradient3191" />
    <radialGradient
       id="radialGradient3868"
       cx="389.854"
       cy="108.5"
       r="373.854"
       fx="389.854"
       fy="108.5"
       gradientTransform="matrix(0.06419612,0,0,0.2257731,3.972862,-122.99638)"
       gradientUnits="userSpaceOnUse"
       xlink:href="#linearGradient3205" />
    <radialGradient
       id="radialGradient3870"
       cx="389.854"
       cy="108.5"
       r="373.854"
       fx="389.854"
       fy="108.5"
       gradientTransform="matrix(0.06419612,0,0,0.2257731,3.972862,-109.99638)"
       gradientUnits="userSpaceOnUse"
       xlink:href="#linearGradient3191" />
    <radialGradient
       id="radialGradient4081"
       cx="389.854"
       cy="108.5"
       r="373.854"
       fx="389.854"
       fy="108.5"
       gradientTransform="matrix(0.1444413,0,0,0.2257731,-62.31106,-7.996376)"
       gradientUnits="userSpaceOnUse"
       xlink:href="#linearGradient3191" />
    <radialGradient
       id="radialGradient4083"
       cx="389.854"
       cy="108.5"
       r="373.854"
       fx="389.854"
       fy="108.5"
       gradientTransform="matrix(0.1444413,0,0,0.2257731,-62.31106,-8.996376)"
       gradientUnits="userSpaceOnUse"
       xlink:href="#linearGradient3205" />
    <radialGradient
       id="radialGradient4085"
       cx="389.854"
       cy="181.83"
       r="373.854"
       fx="389.854"
       fy="181.83"
       gradientTransform="matrix(0.14444763,0,0,0.01872387,-62.31353,11.595444)"
       gradientUnits="userSpaceOnUse"
       xlink:href="#linearGradient3217" />
    <radialGradient
       id="radialGradient4088"
       cx="389.854"
       cy="181.83"
       r="373.854"
       fx="389.854"
       fy="181.83"
       gradientTransform="matrix(0.06419893,0,0,0.01872387,3.9717647,-10.404564)"
       gradientUnits="userSpaceOnUse"
       xlink:href="#linearGradient3217" />
    <radialGradient
       id="radialGradient4091"
       cx="389.854"
       cy="108.5"
       r="373.854"
       fx="389.854"
       fy="108.5"
       gradientTransform="matrix(0.06419612,0,0,0.2257731,3.9728624,-30.996384)"
       gradientUnits="userSpaceOnUse"
       xlink:href="#linearGradient3205" />
    <radialGradient
       id="radialGradient4094"
       cx="389.854"
       cy="108.5"
       r="373.854"
       fx="389.854"
       fy="108.5"
       gradientTransform="matrix(0.06419612,0,0,0.2257731,3.9728624,-28.996384)"
       gradientUnits="userSpaceOnUse"
       xlink:href="#linearGradient3191" />
    <radialGradient
       id="radialGradient3824"
       cx="389.854"
       cy="108.5"
       r="373.854"
       fx="389.854"
       fy="108.5"
       gradientTransform="matrix(0.06419612,0,0,0.2257731,3.972862,-85.996376)"
       gradientUnits="userSpaceOnUse"
       xlink:href="#linearGradient3205" />
    <radialGradient
       id="radialGradient3826"
       cx="389.854"
       cy="108.5"
       r="373.854"
       fx="389.854"
       fy="108.5"
       gradientTransform="matrix(0.06419612,0,0,0.2257731,3.972862,-86.996384)"
       gradientUnits="userSpaceOnUse"
       xlink:href="#linearGradient3191" />
    <radialGradient
       id="radialGradient3067"
       cx="389.854"
       cy="108.5"
       r="373.854"
       fx="389.854"
       fy="108.5"
       gradientTransform="matrix(0.06419612,0,0,0.2257731,3.9728621,-31.996376)"
       gradientUnits="userSpaceOnUse"
       xlink:href="#linearGradient3205" />
    <radialGradient
       id="radialGradient3076"
       cx="389.854"
       cy="108.5"
       r="373.854"
       fx="389.854"
       fy="108.5"
       gradientTransform="matrix(0.06419612,0,0,0.2257731,3.9728621,-31.996376)"
       gradientUnits="userSpaceOnUse"
       xlink:href="#linearGradient3205" />
    <radialGradient
       id="radialGradient3095"
       cx="389.854"
       cy="108.5"
       r="373.854"
       fx="389.854"
       fy="108.5"
       gradientTransform="matrix(0.06419612,0,0,0.2257731,3.9728622,-72.996384)"
       gradientUnits="userSpaceOnUse"
       xlink:href="#linearGradient3191" />
    <radialGradient
       id="radialGradient3098"
       cx="389.854"
       cy="108.5"
       r="373.854"
       fx="389.854"
       fy="108.5"
       gradientTransform="matrix(0.06419612,0,0,0.2257731,3.972862,-85.996376)"
       gradientUnits="userSpaceOnUse"
       xlink:href="#linearGradient3205" />
    <radialGradient
       id="radialGradient3101"
       cx="389.854"
       cy="108.5"
       r="373.854"
       fx="389.854"
       fy="108.5"
       gradientTransform="matrix(0.06419612,0,0,0.2257731,3.972862,-109.99638)"
       gradientUnits="userSpaceOnUse"
       xlink:href="#linearGradient3191" />
    <radialGradient
       id="radialGradient3104"
       cx="389.854"
       cy="108.5"
       r="373.854"
       fx="389.854"
       fy="108.5"
       gradientTransform="matrix(0.06419612,0,0,0.2257731,3.972862,-122.99638)"
       gradientUnits="userSpaceOnUse"
       xlink:href="#linearGradient3205" />
    <radialGradient
       id="radialGradient3066"
       cx="389.854"
       cy="108.5"
       r="373.854"
       fx="389.854"
       fy="108.5"
       gradientTransform="matrix(0.06419612,0,0,0.2257731,57.97286,-73.996376)"
       gradientUnits="userSpaceOnUse"
       xlink:href="#linearGradient3205" />
    <radialGradient
       id="radialGradient3068"
       cx="389.854"
       cy="108.5"
       r="373.854"
       fx="389.854"
       fy="108.5"
       gradientTransform="matrix(0.06419612,0,0,0.2257731,57.97286,-72.996384)"
       gradientUnits="userSpaceOnUse"
       xlink:href="#linearGradient3191" />
    <linearGradient
       id="linearGradient3215">
      <stop
         id="stop3217"
         offset="0"
         style="stop-color:#ffffff;stop-opacity:1" />
      <stop
         id="stop3221"
         offset=".5"
         style="stop-color:#ffffff;stop-opacity:0.28158844" />
      <stop
         id="stop3219"
         offset="1"
         style="stop-color:#ffffff;stop-opacity:0" />
    </linearGradient>
    <linearGradient
       id="linearGradient4157">
      <stop
         id="stop4159"
         offset="0"
         style="stop-color:#ffffff;stop-opacity:0.70588237" />
      <stop
         id="stop4161"
         offset="1"
         style="stop-color:#b5b5b5;stop-opacity:0.19607843" />
    </linearGradient>
  </defs>
  <rect
     id="hint-tile-center"
     width="2.033"
     height="2.077"
     x="0"
     y="2"
     rx="0"
     ry="2.077"
     style="fill:#4e9a06;fill-opacity:1;fill-rule:nonzero;stroke:none" />
  <rect
     id="pressed-hint-top-margin"
     width="2"
     height="4"
     x="34"
     y="18"
     style="fill:#4e9a06;fill-opacity:1;fill-rule:nonzero;stroke:none" />
  <rect
     id="pressed-hint-bottom-margin"
     width="2"
     height="4"
     x="35"
     y="33"
     style="fill:#4e9a06;fill-opacity:1;fill-rule:nonzero;stroke:none" />
  <rect
     id="pressed-hint-left-margin"
     width="4"
     height="2"
     x="26"
     y="28"
     style="fill:#4e9a06;fill-opacity:1;fill-rule:nonzero;stroke:none" />
  <rect
     id="pressed-hint-right-margin"
     width="4"
     height="2"
     x="41"
     y="27"
     style="fill:#4e9a06;fill-opacity:1;fill-rule:nonzero;stroke:none" />
  <rect
     id="normal-hint-left-margin"
     width="4"
     height="2"
     x="30"
     y="70"
     style="fill:#4e9a06;fill-opacity:1;fill-rule:nonzero;stroke:none" />
  <rect
     id="normal-hint-top-margin"
     width="2"
     height="4"
     x="39"
     y="61"
     style="fill:#4e9a06;fill-opacity:1;fill-rule:nonzero;stroke:none" />
  <rect
     id="normal-hint-bottom-margin"
     width="2"
     height="4"
     x="39"
     y="76"
     style="fill:#4e9a06;fill-opacity:1;fill-rule:nonzero;stroke:none" />
  <rect
     id="normal-hint-right-margin"
     width="4"
     height="2"
     x="45"
     y="70"
     style="fill:#4e9a06;fill-opacity:1;fill-rule:nonzero;stroke:none" />
  <rect
     id="rect4052"
     width="40"
     height="1"
     x="80"
     y="-26"
     transform="scale(1,-1)"
     style="opacity:0.2;fill:#000000;fill-opacity:1;stroke:none" />
  <path
     id="normal-center"
     d="m 34,65.00034 0,11.00001 10.999999,0 0,-11.00001 -10.999999,0 z"
     style="opacity:0.00100002;fill:#000000;fill-opacity:1;fill-rule:nonzero;stroke:none" />
  <path
     id="normal-right"
     d="m 45,65.00034 0,11.00001 2,0 c 6.68e-4,-0.0184 0,-0.0344 0,-0.0529 l 0,-10.89424 c 0,-0.0185 6.68e-4,-0.0345 0,-0.0529 l -2,0 z"
     style="opacity:0.00100002;fill:#000000;fill-opacity:1;fill-rule:nonzero;stroke:none" />
  <path
     id="normal-top"
     d="m 34,63.0003 0,2.00004 10.999999,0 0,-2.00004 c -0.0041,-6.7e-4 0.0042,0 10e-7,0 l -10.98814,0 c -0.004,0 -0.008,-6.7e-4 -0.0119,0 z"
     style="opacity:0.00100002;fill:#000000;fill-opacity:1;fill-rule:nonzero;stroke:none" />
  <path
     id="normal-left"
     d="m 32.0003,65.00034 c -6.7e-4,0.0183 0,0.0344 0,0.0529 l 0,10.89423 c 0,0.0185 -6.7e-4,0.0345 0,0.0529 l 2,0 0,-11 -2,0 z"
     style="opacity:0.00100002;fill:#000000;fill-opacity:1;fill-rule:nonzero;stroke:none" />
  <path
     id="normal-bottom"
     d="m 34,76 0,2 11,0 0,-1.99966 z"
     style="opacity:0.00100002;fill:#000000;fill-opacity:1;fill-rule:nonzero;stroke:none" />
  <path
     id="normal-topleft"
     d="m 31.999967,63.0003 0,2.00004 1.999771,0 0,-2.00004 c -7.46e-4,-6.7e-4 7.63e-4,0 0,0 l -1.997614,0 c -7.28e-4,0 -0.0015,-6.7e-4 -0.0022,0 z"
     style="opacity:0.00100002;fill:#000000;fill-opacity:1;fill-rule:nonzero;stroke:none" />
  <path
     id="normal-topright"
     d="m 45.000007,63.00064 0,1.9997 1.999771,0 0,-1.9997 c -7.46e-4,-6.7e-4 7.63e-4,0 0,0 l -1.997614,0 c -7.28e-4,0 -0.0015,-6.7e-4 -0.0022,0 z"
     style="opacity:0.00100002;fill:#000000;fill-opacity:1;fill-rule:nonzero;stroke:none" />
  <path
     id="normal-bottomright"
     d="m 45.000007,76.0003 0,1.9997 1.999771,0 0,-1.9997 c -7.46e-4,-6.7e-4 7.63e-4,0 0,0 l -1.997614,0 c -7.28e-4,0 -0.0015,-6.7e-4 -0.0022,0 z"
     style="opacity:0.00100002;fill:#000000;fill-opacity:1;fill-rule:nonzero;stroke:none" />
  <path
     id="normal-bottomleft"
     d="m 32.000007,76.0003 0,1.9997 1.999771,0 0,-1.9997 c -7.46e-4,-6.7e-4 7.63e-4,0 0,0 l -1.997614,0 c -7.28e-4,0 -0.0015,-6.7e-4 -0.0022,0 z"
     style="opacity:0.00100002;fill:#000000;fill-opacity:1;fill-rule:nonzero;stroke:none" />
  <path
     id="pressed-center"
     d="m 29.9997,22.00001 0,11.00001 10.999999,0 0,-11.00001 -10.999999,0 z"
     style="opacity:0.00100002;fill:#000000;fill-opacity:1;fill-rule:nonzero;stroke:none" />
  <path
     id="pressed-right"
     d="m 40.9997,22.00001 0,11.00001 2,0 c 6.68e-4,-0.0183 0,-0.0344 0,-0.0529 l 0,-10.89423 c 0,-0.0185 6.68e-4,-0.0345 0,-0.0529 l -2,0 z"
     style="opacity:0.00100002;fill:#000000;fill-opacity:1;fill-rule:nonzero;stroke:none" />
  <path
     id="pressed-top"
     d="m 29.9997,19.99997 0,2.00004 10.999999,0 0,-2.00004 c -0.0041,-6.7e-4 0.0045,0 3.01e-4,0 l -10.98844,0 c -0.004,0 -0.008,-6.7e-4 -0.0119,0 z"
     style="opacity:0.00100002;fill:#000000;fill-opacity:1;fill-rule:nonzero;stroke:none" />
  <path
     id="pressed-left"
     d="m 28,22.00001 c -6.7e-4,0.0183 0,0.0344 0,0.0529 l 0,10.89423 c 0,0.0185 -6.7e-4,0.0345 0,0.0529 l 2,0 0,-11 -2,0 z"
     style="opacity:0.00100002;fill:#000000;fill-opacity:1;fill-rule:nonzero;stroke:none" />
  <path
     id="pressed-bottom"
     d="m 30,33 0,2 11,0 0,-2 -11,0 z"
     style="opacity:0.00100002;fill:#000000;fill-opacity:1;fill-rule:nonzero" />
  <path
     id="pressed-topleft"
     d="m 27.999667,19.99997 0,2.00004 1.999722,0 0,-2.00004 c -7.45e-4,-6.7e-4 8.18e-4,0 5.5e-5,0 l -1.997621,0 c -7.27e-4,0 -0.0015,-6.7e-4 -0.0022,0 z"
     style="opacity:0.00100002;fill:#000000;fill-opacity:1;fill-rule:nonzero;stroke:none" />
  <path
     id="pressed-topright"
     d="m 41.000044,19.99997 0,2.00004 1.999722,0 0,-2.00004 c -7.45e-4,-6.7e-4 8.18e-4,0 5.5e-5,0 l -1.997621,0 c -7.27e-4,0 -0.0015,-6.7e-4 -0.0022,0 z"
     style="opacity:0.00100002;fill:#000000;fill-opacity:1;fill-rule:nonzero;stroke:none" />
  <path
     id="pressed-bottomright"
     d="m 41.000044,32.99995 0,2.00005 1.999722,0 0,-2.00005 c -7.45e-4,-6.7e-4 8.18e-4,0 5.5e-5,0 l -1.997621,0 c -7.27e-4,0 -0.0015,-6.7e-4 -0.0022,0 z"
     style="opacity:0.00100002;fill:#000000;fill-opacity:1;fill-rule:nonzero;stroke:none" />
  <path
     id="pressed-bottomleft"
     d="m 28.000044,32.99995 0,2.00005 1.999722,0 0,-2.00005 c -7.45e-4,-6.7e-4 8.18e-4,0 5.5e-5,0 l -1.997621,0 c -7.27e-4,0 -0.0015,-6.7e-4 -0.0022,0 z"
     style="opacity:0.00100002;fill:#000000;fill-opacity:1;fill-rule:nonzero;stroke:none" />
  <path
     id="hover-center"
     d="m 69.9997,19.38416 0,11 10.999999,0 0,-11 -10.999999,0 z"
     style="opacity:0.00100002;fill:#000000;fill-opacity:1;fill-rule:nonzero;stroke:none" />
  <path
     id="hover-right"
     d="m 80.9997,19.38416 0,11 2,0 c 6.68e-4,-0.0183 0,-0.0344 0,-0.0529 l 0,-10.89423 c 0,-0.0185 6.68e-4,-0.0345 0,-0.0529 l -2,0 z"
     style="opacity:0.00100002;fill:#000000;fill-opacity:1;fill-rule:nonzero;stroke:none" />
  <path
     id="hover-top"
     d="m 69.9997,17.38411 0,2.00005 10.999999,0 0,-2.00005 c -0.0041,-6.7e-4 0.0045,0 3.01e-4,0 l -10.98844,0 c -0.004,0 -0.008,-6.7e-4 -0.0119,0 z"
     style="opacity:0.00100002;fill:#000000;fill-opacity:1;fill-rule:nonzero;stroke:none" />
  <path
     id="hover-left"
     d="m 68,19.38416 c -6.7e-4,0.0183 0,0.0344 0,0.0529 l 0,10.89423 c 0,0.0185 -6.7e-4,0.0345 0,0.0529 l 2,0 0,-11.00001 -2,0 z"
     style="opacity:0.00100002;fill:#000000;fill-opacity:1;fill-rule:nonzero;stroke:none" />
  <path
     id="hover-bottom"
     d="m 70,30.38414 0,2 11,0 0,-2 -11,0 z"
     style="opacity:0.00100002;fill:#000000;fill-opacity:1;fill-rule:nonzero" />
  <path
     id="hover-topleft"
     d="m 67.999667,17.38411 0,2.00005 1.999722,0 0,-2.00005 c -7.45e-4,-6.7e-4 8.18e-4,0 5.5e-5,0 l -1.997621,0 c -7.27e-4,0 -0.0015,-6.7e-4 -0.0022,0 z"
     style="opacity:0.00100002;fill:#000000;fill-opacity:1;fill-rule:nonzero;stroke:none" />
  <path
     id="hover-topright"
     d="m 81.000044,17.38411 0,2.00005 1.999722,0 0,-2.00005 c -7.45e-4,-6.7e-4 8.18e-4,0 5.5e-5,0 l -1.997621,0 c -7.27e-4,0 -0.0015,-6.7e-4 -0.0022,0 z"
     style="opacity:0.00100002;fill:#000000;fill-opacity:1;fill-rule:nonzero;stroke:none" />
  <path
     id="hover-bottomright"
     d="m 81.000044,30.3841 0,2.00004 1.999722,0 0,-2.00004 c -7.45e-4,-6.7e-4 8.18e-4,0 5.5e-5,0 l -1.997621,0 c -7.27e-4,0 -0.0015,-6.7e-4 -0.0022,0 z"
     style="opacity:0.00100002;fill:#000000;fill-opacity:1;fill-rule:nonzero;stroke:none" />
  <path
     id="hover-bottomleft"
     d="m 68.000044,30.3841 0,2.00004 1.999722,0 0,-2.00004 c -7.45e-4,-6.7e-4 8.18e-4,0 5.5e-5,0 l -1.997621,0 c -7.27e-4,0 -0.0015,-6.7e-4 -0.0022,0 z"
     style="opacity:0.00100002;fill:#000000;fill-opacity:1;fill-rule:nonzero;stroke:none" />
  <rect
     id="section-center"
     width="50"
     height="50"
     x="67"
     y="52"
     style="opacity:0.5;fill:#252a35;fill-opacity:1;stroke:none" />
  <g
     id="section-topleft"
     transform="translate(-123,-206.99988)">
    <path
       id="path4428"
       d="m 190.00001,251.99982 0,7 -7,0 0,-2 c 0,-2.77 2.23,-5 5,-5 z"
       style="opacity:0.5;fill:#252a35;fill-opacity:1;stroke:none" />
    <path
       id="path4497"
       d="m 188,251.99988 c -2.77,0 -5,2.23 -5,5 l 0,2 1,0 0,-1 c 0,-3 2,-5 5,-5 l 1,0 0,-1 z"
       style="opacity:0.2;fill:#000000;fill-opacity:1;stroke:none" />
  </g>
  <g
     id="section-left"
     transform="translate(-123,-206.99988)">
    <path
       id="path4418"
       d="m 183.00002,258.99981 0,50 7,10e-6 0,-50 z"
       style="opacity:0.5;fill:#252a35;fill-opacity:1;stroke:none" />
    <path
       id="path4502"
       d="m 183,258.99988 0,50 1,0 0,-50 -1,0 z"
       style="opacity:0.2;fill:#000000;fill-opacity:1;stroke:none" />
  </g>
  <g
     id="section-right"
     transform="translate(-123,-206.99988)">
    <path
       id="path4396"
       d="m 247,258.99982 0,50 -7,10e-6 0,-50 z"
       style="opacity:0.5;fill:#252a35;fill-opacity:1;stroke:none" />
    <path
       id="path4507"
       d="m 246,308.99988 1,0 0,-50 -1,0 0,50 z"
       style="opacity:0.2;fill:#000000;fill-opacity:1;stroke:none" />
  </g>
  <g
     id="section-bottomleft"
     transform="translate(-123,-206.99988)">
    <path
       id="path4414"
       d="m 190.00001,315.99991 0,-7 -7,0 0,2 c 0,2.77 2.23,5 5,5 z"
       style="opacity:0.5;fill:#252a35;fill-opacity:1;stroke:none" />
    <path
       id="path4509"
       d="m 183,310.99988 c 0,2.77 2.23,5 5,5 l 2,0 0,-1 -1,0 c -3,0 -5,-2 -5,-5 l 0,-1 -1,0 z"
       style="opacity:0.2;fill:#000000;fill-opacity:1;stroke:none" />
  </g>
  <g
     id="section-bottom"
     transform="translate(-123,-206.99988)">
    <path
       id="path4404"
       d="m 189.99998,315.99995 50.00002,0 0,-7 -50.00001,0 z"
       style="opacity:0.5;fill:#252a35;fill-opacity:1;stroke:none" />
    <path
       id="path4511"
       d="m 190,315.99988 50,0 0,-1 -50,0 0,1 z"
       style="opacity:0.2;fill:#000000;fill-opacity:1;stroke:none" />
  </g>
  <g
     id="section-bottomright"
     transform="translate(-123,-206.99988)">
    <path
       id="path4392"
       d="m 240,315.99991 0,-7 7,0 0,2 c 0,2.77 -2.23,5 -5,5 z"
       style="opacity:0.5;fill:#252a35;fill-opacity:1;stroke:none" />
    <path
       id="path4513"
       d="m 247,310.99988 c 0,2.77 -2.23,5 -5,5 l -2,0 0,-1 1,0 c 3,0 5,-2 5,-5 l 0,-1 1,0 z"
       style="opacity:0.2;fill:#000000;fill-opacity:1;stroke:none" />
  </g>
  <g
     id="section-topright"
     transform="translate(-123,-206.99988)">
    <path
       id="path4378"
       d="m 240,251.99982 0,7 7,0 0,-2 c 0,-2.77 -2.23,-5 -5,-5 z"
       style="opacity:0.5;fill:#252a35;fill-opacity:1;stroke:none" />
    <path
       id="path4515"
       d="m 242,251.99988 c 2.77,0 5,2.23 5,5 l 0,2 -1,0 0,-1 c 0,-3 -2,-5 -5,-5 l -1,0 0,-1 z"
       style="opacity:0.2;fill:#000000;fill-opacity:1;stroke:none" />
  </g>
  <g
     id="section-top"
     transform="translate(-123,-206.99988)">
    <path
       id="path4382"
       d="m 189.99998,251.99982 50.00002,0 0,7 -50.00001,0 z"
       style="opacity:0.5;fill:#252a35;fill-opacity:1;stroke:none" />
    <path
       id="path4492"
       d="m 190,251.99988 0,1 50,0 0,-1 -50,0 z"
       style="opacity:0.2;fill:#000000;fill-opacity:1;stroke:none" />
  </g>
  <rect
     id="section-hint-bottom-margin"
     width="2"
     height="7"
     x="91"
     y="102"
     style="fill:#4e9a06;fill-opacity:1;fill-rule:nonzero;stroke:none" />
  <rect
     id="section-hint-left-margin"
     width="7"
     height="2"
     x="60"
     y="78"
     style="fill:#4e9a06;fill-opacity:1;fill-rule:nonzero;stroke:none" />
  <rect
     id="section-hint-top-margin"
     width="2"
     height="7"
     x="91"
     y="45"
     style="fill:#4e9a06;fill-opacity:1;fill-rule:nonzero;stroke:none" />
  <rect
     id="section-hint-right-margin"
     width="7"
     height="2"
     x="117"
     y="79"
     style="fill:#4e9a06;fill-opacity:1;fill-rule:nonzero;stroke:none" />
</svg>
