<svg xmlns="http://www.w3.org/2000/svg" width="22" height="22" version="1.1">
 <defs id="defs9">
  <style id="current-color-scheme" type="text/css">
   .ColorScheme-Text { color:#d3dae3; } .ColorScheme-Highlight { color:#ee554d; } .ColorScheme-ButtonBackground { color:#d3dae3; }
  </style>
 </defs>
<g id="TeamViewer">
  <rect id="rect4552" width="22" height="22" x="0" y="0" style="opacity:0.001;fill:#000000"/>
  <path id="path4793" style="fill:currentColor" class="ColorScheme-Text" d="m 11,3 c -4.4179185,-10e-8 -8.0000001,3.5820815 -8,8 -10e-8,4.417918 3.5820815,8 8,8 4.417918,0 8,-3.582082 8,-8 0,-4.4179185 -3.582082,-8.0000001 -8,-8 z m -2,5 0,2 4,0 0,-2 3,3 -3,3 0,-2 -4,0 0,2 -3,-3 z"/>
 </g>
</svg>
